…
<img src="p8105_hw6_jck2183_files/figure-gfm/unnamed-chunk-22-1.png" width="90%" />

``` r
cv_df = 
  crossv_mc(birth_df, 100)
```

``` r
cv_df %>% 
    pull(train) %>% 
    .[[1]] %>% 
    as_tibble
```

    ## # A tibble: 3,473 x 20
    ##    babysex bhead blength   bwt delwt fincome frace gaweeks malform menarche
    ##    <fct>   <dbl>   <dbl> <dbl> <dbl>   <dbl> <fct>   <dbl> <fct>      <dbl>
    ##  1 female     34      51  3629 80286      35 White    39.9 absent        13
    ##  2 male       34      48  3062 70760      65 Black    25.9 absent        14
    ##  3 female     36      50  3345 67132      85 White    39.9 absent        12
    ##  4 male       34      52  3062 71214      55 White    40   absent        14
    ##  5 female     34      52  3374 70760       5 White    41.6 absent        13
    ##  6 male       33      52  3374 58513      55 White    40.7 absent        12
    ##  7 female     33      49  2778 63503       5 White    37.4 absent        12
    ##  8 male       36      52  3515 66224      85 White    40.3 absent        11
    ##  9 male       33      50  3459 76657      75 Black    40.7 absent        12
    ## 10 female     35      51  3317 58967      55 White    43.4 absent        13
    ## # … with 3,463 more rows, and 10 more variables: mheight <dbl>, momage <dbl>,
    ## #   mrace <fct>, parity <dbl>, pnumlbw <dbl>, pnumsga <dbl>, ppbmi <dbl>,
    ## #   ppwt <dbl>, smoken <dbl>, wtgain <dbl>

``` r
cv_df %>% 
    pull(test) %>% 
    .[[1]] %>% 
    as_tibble
```

    ## # A tibble: 869 x 20
    ##    babysex bhead blength   bwt delwt fincome frace gaweeks malform menarche
    ##    <fct>   <dbl>   <dbl> <dbl> <dbl>   <dbl> <fct>   <dbl> <fct>      <dbl>
    ##  1 female     33      46  2523 57153      96 Black    40.3 absent        14
    ##  2 male       35      51  3544 58513      65 White    39.6 absent        12
    ##  3 female     35      50  3175 63503      85 Black    40.6 absent        14
    ##  4 female     36      56  3685 77111      95 White    40.3 absent        12
    ##  5 male       34      63  3175 64864      25 White    41.9 absent        13
    ##  6 female     33      49  2948 58513      25 White    41   absent        13
    ##  7 male       35      53  3175 58967      45 White    40.4 absent        13
    ##  8 female     36      51  3317 61689      65 White    42.6 absent        14
    ##  9 female     34      54  3402 69853      75 White    40.7 absent        14
    ## 10 female     35      52  3487 54885      45 White    39.9 absent        11
    ## # … with 859 more rows, and 10 more variables: mheight <dbl>, momage <dbl>,
    ## #   mrace <fct>, parity <dbl>, pnumlbw <dbl>, pnumsga <dbl>, ppbmi <dbl>,
    ## #   ppwt <dbl>, smoken <dbl>, wtgain <dbl>
…
